[gd_resource type="ArrayMesh" load_steps=2 format=2]

[ext_resource path="res://shared/ships/earth_alliance/aurora_starfury/Fury_Main_Paint.material" type="Material" id=1]

[resource]
resource_name = "Grappler_Door_Stbd"
surfaces/0 = {
"aabb": AABB( -0.0103463, -0.0203784, -0.245045, 0.295473, 0.0465032, 0.490598 ),
"array_data": PoolByteArray( 0, 0, 0, 0, 202, 101, 107, 60, 249, 236, 122, 190, 129, 0, 0, 0, 0, 130, 243, 129, 119, 56, 53, 48, 36, 191, 4, 51, 221, 103, 107, 188, 241, 236, 122, 62, 129, 0, 0, 0, 0, 130, 243, 129, 113, 56, 249, 49, 36, 191, 4, 51, 124, 239, 86, 59, 52, 114, 123, 62, 129, 0, 0, 0, 0, 130, 243, 129, 113, 56, 247, 49, 0, 0, 0, 0, 140, 3, 214, 60, 186, 103, 122, 190, 0, 126, 5, 0, 130, 0, 250, 129, 119, 56, 52, 48, 207, 187, 129, 187, 155, 96, 16, 188, 169, 138, 65, 188, 0, 7, 130, 0, 167, 90, 5, 127, 117, 56, 13, 49, 207, 187, 129, 187, 7, 61, 40, 188, 108, 193, 46, 60, 0, 249, 126, 0, 167, 90, 5, 129, 117, 56, 34, 49, 168, 185, 239, 187, 70, 143, 3, 188, 191, 245, 48, 60, 167, 167, 251, 0, 167, 89, 5, 127, 118, 56, 34, 49, 168, 185, 239, 187, 182, 101, 215, 187, 86, 86, 63, 188, 0, 7, 130, 0, 167, 90, 5, 127, 118, 56, 13, 49, 53, 156, 28, 188, 172, 87, 153, 187, 60, 66, 52, 60, 139, 208, 253, 0, 208, 116, 10, 127, 118, 56, 34, 49, 53, 156, 28, 188, 170, 61, 83, 187, 89, 10, 60, 188, 0, 7, 130, 0, 167, 90, 5, 127, 119, 56, 13, 49, 82, 131, 41, 188, 92, 227, 62, 58, 10, 38, 56, 188, 0, 7, 130, 0, 167, 90, 5, 127, 119, 56, 13, 49, 82, 131, 41, 188, 92, 227, 62, 186, 10, 38, 56, 60, 0, 249, 126, 0, 168, 90, 5, 129, 118, 56, 34, 49, 53, 156, 28, 188, 170, 61, 83, 59, 89, 10, 60, 60, 139, 48, 3, 0, 208, 140, 242, 129, 118, 56, 34, 49, 53, 156, 28, 188, 172, 87, 153, 59, 60, 66, 52, 188, 0, 7, 130, 0, 167, 90, 5, 127, 119, 56, 13, 49, 168, 185, 239, 187, 182, 101, 215, 59, 86, 86, 63, 60, 167, 89, 5, 0, 167, 168, 242, 129, 118, 56, 33, 49, 168, 185, 239, 187, 70, 143, 3, 60, 191, 245, 48, 188, 0, 7, 130, 0, 168, 90, 5, 127, 118, 56, 13, 49, 207, 187, 129, 187, 7, 61, 40, 60, 108, 193, 46, 188, 0, 7, 130, 0, 168, 90, 5, 127, 117, 56, 12, 49, 207, 187, 129, 187, 155, 96, 16, 60, 169, 138, 65, 60, 0, 249, 126, 0, 167, 90, 5, 129, 117, 56, 33, 49, 36, 191, 4, 179, 117, 64, 29, 60, 236, 80, 66, 60, 0, 126, 8, 0, 130, 0, 250, 129, 116, 56, 33, 49, 36, 191, 4, 179, 224, 28, 53, 60, 40, 251, 45, 188, 0, 7, 130, 0, 168, 90, 5, 127, 116, 56, 12, 49, 141, 187, 129, 59, 155, 96, 16, 60, 169, 138, 65, 60, 48, 117, 7, 0, 139, 48, 0, 129, 115, 56, 33, 49, 141, 187, 129, 59, 7, 61, 40, 60, 108, 193, 46, 188, 0, 7, 130, 0, 168, 90, 5, 127, 115, 56, 12, 49, 44, 186, 239, 59, 70, 143, 3, 60, 191, 245, 48, 188, 0, 7, 130, 0, 168, 90, 5, 127, 115, 56, 12, 49, 44, 186, 239, 59, 182, 101, 215, 59, 86, 86, 63, 60, 0, 249, 126, 0, 168, 90, 5, 129, 114, 56, 33, 49, 120, 156, 28, 60, 170, 61, 83, 59, 217, 9, 60, 60, 117, 48, 3, 0, 208, 116, 10, 129, 114, 56, 33, 49, 120, 156, 28, 60, 172, 87, 153, 59, 60, 66, 52, 188, 0, 7, 130, 0, 167, 90, 5, 127, 114, 56, 12, 49, 82, 131, 41, 60, 44, 194, 62, 186, 10, 38, 56, 60, 126, 0, 0, 0, 0, 126, 12, 129, 114, 56, 33, 49, 82, 131, 41, 60, 244, 243, 62, 58, 10, 38, 56, 188, 0, 7, 130, 0, 168, 90, 5, 127, 114, 56, 12, 49, 110, 155, 28, 60, 170, 61, 83, 187, 217, 9, 60, 188, 0, 7, 130, 0, 168, 90, 5, 127, 114, 56, 12, 49, 110, 155, 28, 60, 172, 87, 153, 187, 60, 66, 52, 60, 0, 249, 126, 0, 168, 90, 5, 129, 114, 56, 33, 49, 92, 184, 239, 59, 80, 144, 3, 188, 191, 245, 48, 60, 89, 167, 251, 0, 167, 168, 242, 127, 114, 56, 33, 49, 92, 184, 239, 59, 201, 103, 215, 187, 86, 86, 63, 188, 0, 7, 130, 0, 167, 90, 5, 127, 115, 56, 13, 49, 36, 191, 4, 179, 117, 64, 29, 188, 236, 80, 66, 188, 0, 7, 130, 0, 167, 90, 5, 127, 116, 56, 13, 49, 36, 191, 4, 179, 224, 28, 53, 188, 168, 251, 45, 60, 0, 249, 126, 0, 168, 90, 5, 129, 116, 56, 34, 49, 207, 187, 129, 59, 253, 59, 40, 188, 108, 193, 46, 60, 48, 139, 249, 0, 139, 209, 246, 127, 115, 56, 33, 49, 207, 187, 129, 59, 155, 96, 16, 188, 169, 138, 65, 188, 0, 7, 130, 0, 167, 89, 5, 127, 115, 56, 13, 49, 36, 191, 4, 179, 162, 129, 143, 185, 119, 133, 31, 190, 0, 130, 248, 0, 130, 0, 250, 127, 118, 56, 136, 48, 36, 191, 4, 179, 196, 195, 226, 186, 182, 128, 8, 190, 0, 249, 126, 0, 168, 90, 5, 129, 118, 56, 157, 48, 36, 191, 4, 179, 110, 2, 155, 188, 90, 59, 7, 62, 0, 7, 130, 0, 168, 90, 5, 127, 115, 56, 146, 49, 36, 191, 4, 179, 164, 240, 166, 188, 27, 64, 30, 62, 0, 249, 126, 0, 168, 90, 5, 129, 114, 56, 166, 49, 207, 187, 129, 187, 183, 128, 160, 188, 127, 76, 30, 62, 208, 139, 249, 0, 139, 48, 0, 127, 115, 56, 167, 49, 207, 187, 129, 187, 130, 146, 148, 188, 190, 71, 7, 62, 0, 7, 130, 0, 167, 90, 5, 127, 116, 56, 146, 49, 207, 187, 129, 187, 238, 137, 119, 186, 82, 116, 8, 190, 0, 249, 126, 0, 167, 90, 5, 129, 119, 56, 157, 48, 207, 187, 129, 187, 202, 60, 6, 58, 19, 121, 31, 190, 0, 7, 130, 0, 167, 90, 5, 127, 119, 56, 136, 48, 101, 185, 239, 187, 215, 41, 142, 188, 197, 111, 30, 62, 167, 167, 251, 0, 167, 89, 5, 127, 116, 56, 167, 49, 101, 185, 239, 187, 161, 59, 130, 188, 3, 107, 7, 62, 0, 7, 130, 0, 167, 90, 5, 127, 116, 56, 146, 49, 168, 185, 239, 187, 11, 169, 169, 58, 13, 81, 8, 190, 0, 249, 126, 0, 167, 90, 5, 129, 119, 56, 157, 48, 168, 185, 239, 187, 51, 70, 52, 59, 206, 85, 31, 190, 0, 7, 130, 0, 167, 90, 5, 127, 120, 56, 136, 48, 53, 156, 28, 188, 62, 112, 101, 188, 140, 164, 30, 62, 139, 208, 253, 0, 208, 116, 10, 127, 117, 56, 167, 49, 53, 156, 28, 188, 210, 147, 77, 188, 203, 159, 7, 62, 0, 7, 130, 0, 167, 90, 5, 127, 117, 56, 146, 49, 53, 156, 28, 188, 36, 49, 152, 59, 69, 28, 8, 190, 0, 249, 126, 0, 167, 90, 5, 129, 120, 56, 157, 48, 53, 156, 28, 188, 251, 233, 199, 59, 6, 33, 31, 190, 0, 7, 130, 0, 167, 90, 5, 127, 120, 56, 136, 48, 82, 131, 41, 188, 158, 178, 36, 188, 201, 226, 30, 62, 130, 0, 0, 0, 0, 126, 12, 127, 117, 56, 166, 49, 82, 131, 41, 188, 50, 214, 12, 188, 8, 222, 7, 62, 0, 7, 130, 0, 167, 90, 5, 127, 117, 56, 146, 49, 82, 131, 41, 188, 50, 214, 12, 60, 8, 222, 7, 190, 0, 249, 126, 0, 167, 89, 5, 129, 120, 56, 157, 48, 82, 131, 41, 188, 158, 178, 36, 60, 201, 226, 30, 190, 0, 7, 130, 0, 167, 90, 5, 127, 120, 56, 136, 48, 53, 156, 28, 188, 251, 233, 199, 187, 6, 33, 31, 62, 139, 48, 3, 0, 208, 140, 242, 129, 117, 56, 166, 49, 53, 156, 28, 188, 36, 49, 152, 187, 69, 28, 8, 62, 0, 7, 130, 0, 167, 90, 5, 127, 117, 56, 145, 49, 53, 156, 28, 188, 210, 147, 77, 60, 203, 159, 7, 190, 0, 249, 126, 0, 167, 90, 5, 129, 120, 56, 157, 48, 53, 156, 28, 188, 62, 112, 101, 60, 140, 164, 30, 190, 0, 7, 130, 0, 168, 91, 5, 127, 120, 56, 136, 48, 168, 185, 239, 187, 51, 70, 52, 187, 206, 85, 31, 62, 167, 89, 5, 0, 167, 168, 242, 129, 116, 56, 166, 49, 168, 185, 239, 187, 11, 169, 169, 186, 13, 81, 8, 62, 0, 7, 130, 0, 167, 90, 5, 127, 116, 56, 145, 49, 168, 185, 239, 187, 161, 59, 130, 60, 3, 107, 7, 190, 0, 249, 126, 0, 168, 90, 5, 129, 119, 56, 157, 48, 168, 185, 239, 187, 215, 41, 142, 60, 197, 111, 30, 190, 0, 7, 130, 0, 168, 90, 5, 127, 120, 56, 136, 48, 207, 187, 129, 187, 202, 60, 6, 186, 19, 121, 31, 62, 208, 117, 7, 0, 139, 209, 246, 129, 115, 56, 166, 49, 207, 187, 129, 187, 238, 137, 119, 58, 82, 116, 8, 62, 0, 7, 130, 0, 167, 89, 5, 127, 116, 56, 145, 49, 207, 187, 129, 187, 130, 146, 148, 60, 190, 71, 7, 190, 0, 249, 126, 0, 168, 90, 5, 129, 119, 56, 156, 48, 207, 187, 129, 187, 183, 128, 160, 60, 127, 76, 30, 190, 0, 7, 130, 0, 168, 90, 5, 127, 119, 56, 136, 48, 36, 191, 4, 179, 162, 129, 143, 57, 119, 133, 31, 62, 0, 126, 8, 0, 130, 0, 250, 129, 114, 56, 166, 49, 36, 191, 4, 179, 196, 195, 226, 58, 182, 128, 8, 62, 0, 7, 130, 0, 168, 90, 5, 127, 115, 56, 145, 49, 36, 191, 4, 179, 110, 2, 155, 60, 90, 59, 7, 190, 0, 249, 126, 0, 168, 90, 5, 129, 118, 56, 156, 48, 36, 191, 4, 179, 164, 240, 166, 60, 27, 64, 30, 190, 0, 7, 130, 0, 168, 90, 5, 127, 118, 56, 135, 48, 141, 187, 129, 59, 202, 60, 6, 186, 19, 121, 31, 62, 48, 117, 7, 0, 139, 48, 0, 129, 114, 56, 165, 49, 141, 187, 129, 59, 238, 137, 119, 58, 82, 116, 8, 62, 0, 7, 130, 0, 168, 90, 5, 127, 114, 56, 145, 49, 141, 187, 129, 59, 130, 146, 148, 60, 190, 71, 7, 190, 0, 249, 126, 0, 167, 90, 5, 129, 117, 56, 156, 48, 141, 187, 129, 59, 183, 128, 160, 60, 127, 76, 30, 190, 0, 7, 130, 0, 167, 90, 5, 127, 117, 56, 135, 48, 44, 186, 239, 59, 51, 70, 52, 187, 206, 85, 31, 62, 89, 89, 5, 0, 167, 89, 5, 129, 113, 56, 165, 49, 44, 186, 239, 59, 11, 169, 169, 186, 13, 81, 8, 62, 0, 7, 130, 0, 168, 90, 5, 127, 113, 56, 145, 49, 44, 186, 239, 59, 161, 59, 130, 60, 3, 107, 7, 190, 0, 249, 126, 0, 167, 90, 5, 129, 116, 56, 156, 48, 44, 186, 239, 59, 215, 41, 142, 60, 197, 111, 30, 190, 0, 7, 130, 0, 167, 90, 5, 127, 116, 56, 135, 48, 120, 156, 28, 60, 251, 233, 199, 187, 6, 33, 31, 62, 117, 48, 3, 0, 208, 116, 10, 129, 112, 56, 165, 49, 120, 156, 28, 60, 36, 49, 152, 187, 69, 28, 8, 62, 0, 7, 130, 0, 167, 90, 5, 127, 112, 56, 145, 49, 120, 156, 28, 60, 210, 147, 77, 60, 203, 159, 7, 190, 0, 249, 126, 0, 167, 90, 5, 129, 115, 56, 156, 48, 120, 156, 28, 60, 62, 112, 101, 60, 140, 164, 30, 190, 0, 7, 130, 0, 168, 90, 5, 127, 116, 56, 135, 48, 82, 131, 41, 60, 139, 176, 36, 188, 201, 226, 30, 62, 126, 0, 0, 0, 0, 126, 12, 129, 112, 56, 166, 49, 82, 131, 41, 60, 41, 213, 12, 188, 8, 222, 7, 62, 0, 7, 130, 0, 167, 90, 5, 127, 112, 56, 145, 49, 82, 131, 41, 60, 69, 216, 12, 60, 8, 222, 7, 190, 0, 249, 126, 0, 168, 90, 5, 129, 115, 56, 156, 48, 82, 131, 41, 60, 167, 179, 36, 60, 201, 226, 30, 190, 0, 7, 130, 0, 167, 90, 5, 127, 116, 56, 135, 48, 110, 155, 28, 60, 62, 112, 101, 188, 140, 164, 30, 62, 117, 208, 253, 0, 208, 140, 242, 127, 112, 56, 166, 49, 110, 155, 28, 60, 210, 147, 77, 188, 203, 159, 7, 62, 0, 7, 130, 0, 167, 89, 5, 127, 112, 56, 145, 49, 110, 155, 28, 60, 36, 49, 152, 59, 69, 28, 8, 190, 0, 249, 126, 0, 167, 90, 5, 129, 115, 56, 156, 48, 110, 155, 28, 60, 251, 233, 199, 59, 6, 33, 31, 190, 0, 7, 130, 0, 167, 90, 5, 127, 116, 56, 136, 48, 92, 184, 239, 59, 92, 42, 142, 188, 197, 111, 30, 62, 89, 167, 251, 0, 167, 168, 242, 127, 113, 56, 166, 49, 25, 184, 239, 59, 38, 60, 130, 188, 3, 107, 7, 62, 0, 7, 130, 0, 167, 90, 5, 127, 113, 56, 145, 49, 92, 184, 239, 59, 191, 160, 169, 58, 13, 81, 8, 190, 0, 249, 126, 0, 167, 90, 5, 129, 116, 56, 157, 48, 92, 184, 239, 59, 13, 66, 52, 59, 206, 85, 31, 190, 0, 7, 130, 0, 168, 90, 5, 127, 116, 56, 136, 48, 207, 187, 129, 59, 183, 128, 160, 188, 127, 76, 30, 62, 48, 139, 249, 0, 139, 209, 246, 127, 114, 56, 166, 49, 207, 187, 129, 59, 130, 146, 148, 188, 190, 71, 7, 62, 0, 7, 130, 0, 168, 90, 5, 127, 114, 56, 145, 49, 207, 187, 129, 59, 86, 121, 119, 186, 82, 116, 8, 190, 0, 249, 126, 0, 167, 90, 5, 129, 117, 56, 157, 48, 207, 187, 129, 59, 202, 60, 6, 58, 19, 121, 31, 190, 0, 7, 130, 0, 168, 90, 5, 127, 117, 56, 136, 48, 144, 28, 216, 60, 124, 239, 86, 59, 52, 114, 123, 62, 0, 126, 5, 0, 130, 0, 250, 129, 107, 56, 246, 49, 144, 28, 216, 60, 221, 103, 107, 188, 241, 236, 122, 62, 0, 130, 249, 0, 130, 0, 250, 127, 107, 56, 248, 49, 111, 28, 216, 60, 140, 3, 214, 60, 186, 103, 122, 190, 0, 126, 5, 0, 130, 0, 250, 129, 113, 56, 51, 48, 111, 28, 216, 60, 202, 101, 107, 60, 249, 236, 122, 190, 0, 5, 130, 0, 155, 76, 3, 127, 113, 56, 52, 48, 33, 252, 145, 62, 162, 243, 86, 59, 52, 114, 123, 62, 0, 126, 5, 0, 130, 0, 250, 129, 48, 56, 235, 49, 33, 252, 145, 62, 221, 103, 107, 188, 241, 236, 122, 62, 0, 130, 249, 0, 130, 0, 250, 127, 48, 56, 236, 49, 33, 252, 145, 62, 140, 3, 214, 60, 186, 103, 122, 190, 0, 5, 130, 0, 155, 76, 3, 127, 53, 56, 40, 48, 33, 252, 145, 62, 202, 101, 107, 60, 1, 237, 122, 190, 0, 5, 130, 0, 155, 76, 3, 127, 53, 56, 40, 48, 136, 185, 128, 62, 76, 206, 86, 60, 251, 242, 13, 61, 0, 126, 5, 0, 130, 0, 250, 129, 58, 56, 42, 49, 136, 185, 128, 62, 199, 21, 15, 60, 3, 166, 3, 62, 0, 126, 5, 0, 130, 0, 250, 129, 57, 56, 128, 49, 136, 185, 128, 62, 218, 122, 133, 60, 1, 201, 9, 189, 0, 126, 5, 0, 130, 0, 250, 129, 59, 56, 235, 48, 136, 185, 128, 62, 29, 87, 169, 60, 133, 155, 2, 190, 0, 126, 5, 0, 130, 0, 250, 129, 60, 56, 149, 48, 136, 185, 128, 62, 193, 44, 3, 187, 35, 207, 11, 61, 139, 210, 254, 0, 210, 117, 10, 127, 58, 56, 43, 49, 136, 185, 128, 62, 81, 241, 245, 187, 208, 18, 3, 62, 139, 210, 254, 0, 210, 117, 10, 127, 57, 56, 130, 49, 136, 185, 128, 62, 117, 36, 3, 59, 99, 207, 11, 189, 139, 210, 254, 0, 210, 117, 10, 127, 59, 56, 236, 48, 136, 185, 128, 62, 43, 237, 245, 59, 224, 18, 3, 190, 0, 218, 121, 0, 133, 228, 247, 127, 60, 56, 150, 48, 136, 185, 128, 62, 202, 101, 107, 60, 1, 237, 122, 190, 0, 130, 249, 0, 130, 0, 250, 127, 61, 56, 42, 48, 136, 185, 128, 62, 140, 3, 214, 60, 186, 103, 122, 190, 0, 126, 5, 0, 130, 0, 250, 129, 61, 56, 41, 48, 136, 185, 128, 62, 162, 243, 86, 59, 52, 114, 123, 62, 0, 126, 5, 0, 130, 0, 250, 129, 56, 56, 236, 49, 136, 185, 128, 62, 221, 103, 107, 188, 241, 236, 122, 62, 0, 130, 249, 0, 130, 0, 250, 127, 56, 56, 237, 49, 33, 252, 145, 62, 81, 241, 245, 187, 208, 18, 3, 62, 127, 0, 0, 0, 0, 130, 243, 127, 49, 56, 128, 49, 33, 252, 145, 62, 193, 44, 3, 187, 35, 207, 11, 61, 127, 0, 0, 0, 0, 130, 243, 127, 50, 56, 42, 49, 33, 252, 145, 62, 117, 36, 3, 59, 99, 207, 11, 189, 0, 130, 249, 0, 130, 0, 250, 127, 51, 56, 235, 48, 33, 252, 145, 62, 43, 237, 245, 59, 224, 18, 3, 190, 127, 0, 0, 0, 0, 130, 243, 127, 52, 56, 148, 48, 33, 252, 145, 62, 29, 87, 169, 60, 133, 155, 2, 190, 127, 0, 0, 0, 0, 130, 243, 127, 52, 56, 147, 48, 33, 252, 145, 62, 218, 122, 133, 60, 1, 201, 9, 189, 127, 0, 0, 0, 0, 130, 243, 127, 51, 56, 234, 48, 33, 252, 145, 62, 76, 206, 86, 60, 251, 242, 13, 61, 126, 0, 0, 0, 0, 130, 243, 127, 50, 56, 41, 49, 33, 252, 145, 62, 199, 21, 15, 60, 3, 166, 3, 62, 127, 0, 0, 0, 0, 130, 243, 127, 49, 56, 127, 49, 127, 28, 216, 60, 29, 87, 169, 60, 133, 155, 2, 190, 0, 126, 5, 0, 130, 0, 250, 129, 112, 56, 159, 48, 127, 28, 216, 60, 218, 122, 133, 60, 1, 201, 9, 189, 0, 126, 5, 0, 130, 0, 250, 129, 110, 56, 245, 48, 127, 28, 216, 60, 67, 205, 86, 60, 251, 242, 13, 61, 0, 126, 5, 0, 130, 0, 250, 129, 110, 56, 52, 49, 127, 28, 216, 60, 189, 20, 15, 60, 3, 166, 3, 62, 0, 126, 5, 0, 130, 0, 250, 129, 109, 56, 139, 49, 127, 28, 216, 60, 81, 241, 245, 187, 216, 18, 3, 62, 117, 210, 254, 0, 210, 139, 242, 127, 109, 56, 140, 49, 127, 28, 216, 60, 193, 44, 3, 187, 67, 207, 11, 61, 117, 210, 254, 0, 210, 139, 242, 127, 110, 56, 53, 49, 127, 28, 216, 60, 117, 36, 3, 59, 67, 207, 11, 189, 0, 231, 132, 0, 131, 19, 252, 127, 111, 56, 246, 48, 127, 28, 216, 60, 43, 237, 245, 59, 216, 18, 3, 190, 0, 218, 121, 0, 133, 228, 247, 127, 112, 56, 160, 48, 36, 191, 4, 51, 189, 20, 15, 60, 3, 166, 3, 62, 129, 0, 0, 0, 0, 130, 243, 129, 115, 56, 140, 49, 36, 191, 4, 51, 67, 205, 86, 60, 251, 242, 13, 61, 129, 0, 0, 0, 0, 130, 243, 129, 116, 56, 53, 49, 36, 191, 4, 51, 218, 122, 133, 60, 1, 201, 9, 189, 129, 0, 0, 0, 0, 130, 243, 129, 117, 56, 246, 48, 36, 191, 4, 51, 29, 87, 169, 60, 133, 155, 2, 190, 129, 0, 0, 0, 0, 130, 243, 129, 118, 56, 160, 48, 36, 191, 4, 51, 43, 237, 245, 59, 216, 18, 3, 190, 129, 0, 0, 0, 0, 130, 243, 129, 118, 56, 161, 48, 36, 191, 4, 51, 117, 36, 3, 59, 67, 207, 11, 189, 129, 0, 0, 0, 0, 130, 243, 129, 117, 56, 247, 48, 36, 191, 4, 51, 193, 44, 3, 187, 67, 207, 11, 61, 129, 0, 0, 0, 0, 130, 243, 129, 116, 56, 54, 49, 36, 191, 4, 51, 81, 241, 245, 187, 216, 18, 3, 62, 129, 0, 0, 0, 0, 130, 243, 129, 115, 56, 141, 49, 117, 199, 127, 62, 179, 6, 96, 187, 69, 51, 2, 62, 139, 210, 254, 0, 210, 117, 10, 127, 57, 56, 128, 49, 117, 199, 127, 62, 47, 175, 8, 59, 130, 31, 17, 61, 139, 210, 254, 0, 210, 117, 10, 127, 58, 56, 44, 49, 64, 121, 229, 60, 179, 6, 96, 187, 77, 51, 2, 62, 117, 210, 254, 0, 210, 139, 242, 127, 108, 56, 138, 49, 117, 199, 127, 62, 146, 237, 61, 60, 201, 190, 1, 190, 0, 218, 121, 0, 133, 228, 247, 127, 60, 56, 151, 48, 117, 199, 127, 62, 50, 128, 199, 59, 144, 77, 15, 189, 139, 210, 254, 0, 210, 117, 10, 127, 59, 56, 235, 48, 64, 121, 229, 60, 50, 128, 199, 59, 112, 77, 15, 189, 0, 231, 132, 0, 131, 19, 252, 127, 110, 56, 245, 48, 64, 121, 229, 60, 146, 237, 61, 60, 193, 190, 1, 190, 0, 218, 121, 0, 133, 228, 247, 127, 111, 56, 160, 48, 64, 121, 229, 60, 47, 175, 8, 59, 161, 31, 17, 61, 117, 210, 254, 0, 210, 139, 242, 127, 109, 56, 54, 49, 111, 28, 216, 60, 202, 101, 107, 60, 249, 236, 122, 190, 0, 130, 249, 0, 130, 0, 250, 127, 113, 56, 52, 48, 0, 0, 0, 0, 202, 101, 107, 60, 249, 236, 122, 190, 0, 130, 249, 0, 130, 0, 250, 127, 119, 56, 53, 48, 0, 0, 0, 0, 202, 101, 107, 60, 249, 236, 122, 190, 0, 5, 130, 0, 155, 76, 3, 127, 119, 56, 53, 48, 111, 28, 216, 60, 140, 3, 214, 60, 186, 103, 122, 190, 0, 5, 130, 0, 155, 76, 3, 127, 113, 56, 51, 48, 0, 0, 0, 0, 140, 3, 214, 60, 186, 103, 122, 190, 0, 5, 130, 0, 155, 76, 3, 127, 119, 56, 52, 48, 0, 0, 0, 0, 140, 3, 214, 60, 186, 103, 122, 190, 129, 0, 0, 0, 0, 130, 243, 129, 119, 56, 52, 48, 36, 191, 4, 51, 221, 103, 107, 188, 241, 236, 122, 62, 0, 253, 126, 0, 148, 66, 1, 129, 113, 56, 249, 49, 36, 191, 4, 51, 221, 103, 107, 188, 241, 236, 122, 62, 0, 130, 249, 0, 130, 0, 250, 127, 113, 56, 249, 49, 36, 191, 4, 51, 124, 239, 86, 59, 52, 114, 123, 62, 0, 253, 126, 0, 148, 66, 1, 129, 113, 56, 247, 49, 36, 191, 4, 51, 124, 239, 86, 59, 52, 114, 123, 62, 0, 126, 5, 0, 130, 0, 250, 129, 113, 56, 247, 49, 36, 191, 4, 179, 224, 28, 53, 188, 168, 251, 45, 60, 0, 130, 248, 0, 130, 0, 250, 127, 116, 56, 34, 49, 207, 187, 129, 59, 253, 59, 40, 188, 108, 193, 46, 60, 0, 249, 126, 0, 168, 90, 5, 129, 115, 56, 33, 49, 207, 187, 129, 59, 155, 96, 16, 188, 169, 138, 65, 188, 48, 139, 249, 0, 139, 209, 246, 127, 115, 56, 13, 49, 36, 191, 4, 179, 117, 64, 29, 188, 236, 80, 66, 188, 0, 130, 248, 0, 130, 0, 250, 127, 116, 56, 13, 49, 110, 155, 28, 60, 172, 87, 153, 187, 60, 66, 52, 60, 117, 208, 253, 0, 208, 140, 242, 127, 114, 56, 33, 49, 82, 131, 41, 60, 44, 194, 62, 186, 10, 38, 56, 60, 0, 249, 126, 0, 167, 90, 5, 129, 114, 56, 33, 49, 82, 131, 41, 60, 244, 243, 62, 58, 10, 38, 56, 188, 126, 0, 0, 0, 0, 126, 12, 129, 114, 56, 12, 49, 110, 155, 28, 60, 170, 61, 83, 187, 217, 9, 60, 188, 117, 208, 253, 0, 208, 140, 242, 127, 114, 56, 12, 49, 44, 186, 239, 59, 182, 101, 215, 59, 86, 86, 63, 60, 89, 89, 5, 0, 167, 89, 5, 129, 114, 56, 33, 49, 141, 187, 129, 59, 155, 96, 16, 60, 169, 138, 65, 60, 0, 249, 126, 0, 168, 90, 5, 129, 115, 56, 33, 49, 141, 187, 129, 59, 7, 61, 40, 60, 108, 193, 46, 188, 48, 117, 7, 0, 139, 48, 0, 129, 115, 56, 12, 49, 44, 186, 239, 59, 70, 143, 3, 60, 191, 245, 48, 188, 89, 89, 5, 0, 167, 89, 5, 129, 115, 56, 12, 49, 207, 187, 129, 187, 155, 96, 16, 60, 169, 138, 65, 60, 208, 117, 7, 0, 139, 209, 246, 129, 117, 56, 33, 49, 168, 185, 239, 187, 182, 101, 215, 59, 86, 86, 63, 60, 0, 249, 126, 0, 167, 90, 5, 129, 118, 56, 33, 49, 168, 185, 239, 187, 70, 143, 3, 60, 191, 245, 48, 188, 167, 89, 5, 0, 167, 168, 242, 129, 118, 56, 13, 49, 207, 187, 129, 187, 7, 61, 40, 60, 108, 193, 46, 188, 208, 117, 7, 0, 139, 209, 246, 129, 117, 56, 12, 49, 82, 131, 41, 188, 92, 227, 62, 186, 10, 38, 56, 60, 130, 0, 0, 0, 0, 130, 242, 129, 118, 56, 34, 49, 53, 156, 28, 188, 172, 87, 153, 187, 60, 66, 52, 60, 0, 249, 126, 0, 167, 90, 5, 129, 118, 56, 34, 49, 53, 156, 28, 188, 170, 61, 83, 187, 89, 10, 60, 188, 139, 208, 253, 0, 208, 116, 10, 127, 119, 56, 13, 49, 82, 131, 41, 188, 92, 227, 62, 58, 10, 38, 56, 188, 130, 0, 0, 0, 0, 130, 242, 129, 119, 56, 13, 49, 207, 187, 129, 187, 7, 61, 40, 188, 108, 193, 46, 60, 208, 139, 249, 0, 139, 48, 0, 127, 117, 56, 34, 49, 207, 187, 129, 187, 155, 96, 16, 188, 169, 138, 65, 188, 208, 139, 249, 0, 139, 48, 0, 127, 117, 56, 13, 49, 92, 184, 239, 59, 80, 144, 3, 188, 191, 245, 48, 60, 0, 249, 126, 0, 168, 90, 5, 129, 114, 56, 33, 49, 92, 184, 239, 59, 201, 103, 215, 187, 86, 86, 63, 188, 89, 167, 251, 0, 167, 168, 242, 127, 115, 56, 13, 49, 120, 156, 28, 60, 170, 61, 83, 59, 217, 9, 60, 60, 0, 249, 126, 0, 168, 90, 5, 129, 114, 56, 33, 49, 120, 156, 28, 60, 172, 87, 153, 59, 60, 66, 52, 188, 117, 48, 3, 0, 208, 116, 10, 129, 114, 56, 12, 49, 36, 191, 4, 179, 117, 64, 29, 60, 236, 80, 66, 60, 0, 249, 126, 0, 168, 90, 5, 129, 116, 56, 33, 49, 36, 191, 4, 179, 224, 28, 53, 60, 40, 251, 45, 188, 0, 126, 8, 0, 130, 0, 250, 129, 116, 56, 12, 49, 53, 156, 28, 188, 170, 61, 83, 59, 89, 10, 60, 60, 0, 249, 126, 0, 167, 90, 5, 129, 118, 56, 34, 49, 53, 156, 28, 188, 172, 87, 153, 59, 60, 66, 52, 188, 139, 48, 3, 0, 208, 140, 242, 129, 119, 56, 13, 49, 168, 185, 239, 187, 70, 143, 3, 188, 191, 245, 48, 60, 0, 249, 126, 0, 167, 90, 5, 129, 118, 56, 34, 49, 168, 185, 239, 187, 182, 101, 215, 187, 86, 86, 63, 188, 167, 167, 251, 0, 167, 89, 5, 127, 118, 56, 13, 49, 207, 187, 129, 59, 202, 60, 6, 58, 19, 121, 31, 190, 48, 139, 249, 0, 139, 209, 246, 127, 117, 56, 136, 48, 36, 191, 4, 179, 162, 129, 143, 185, 119, 133, 31, 190, 0, 7, 130, 0, 168, 90, 5, 127, 118, 56, 136, 48, 36, 191, 4, 179, 196, 195, 226, 186, 182, 128, 8, 190, 0, 130, 248, 0, 130, 0, 250, 127, 118, 56, 157, 48, 207, 187, 129, 59, 86, 121, 119, 186, 82, 116, 8, 190, 48, 139, 249, 0, 139, 209, 246, 127, 117, 56, 157, 48, 36, 191, 4, 179, 164, 240, 166, 188, 27, 64, 30, 62, 0, 130, 248, 0, 130, 0, 250, 127, 114, 56, 166, 49, 207, 187, 129, 59, 183, 128, 160, 188, 127, 76, 30, 62, 0, 249, 126, 0, 168, 90, 5, 129, 114, 56, 166, 49, 207, 187, 129, 59, 130, 146, 148, 188, 190, 71, 7, 62, 48, 139, 249, 0, 139, 209, 246, 127, 114, 56, 145, 49, 36, 191, 4, 179, 110, 2, 155, 188, 90, 59, 7, 62, 0, 130, 248, 0, 130, 0, 250, 127, 115, 56, 146, 49, 92, 184, 239, 59, 13, 66, 52, 59, 206, 85, 31, 190, 89, 167, 251, 0, 167, 168, 242, 127, 116, 56, 136, 48, 92, 184, 239, 59, 191, 160, 169, 58, 13, 81, 8, 190, 89, 167, 251, 0, 167, 168, 242, 127, 116, 56, 157, 48, 92, 184, 239, 59, 92, 42, 142, 188, 197, 111, 30, 62, 0, 249, 126, 0, 168, 90, 5, 129, 113, 56, 166, 49, 25, 184, 239, 59, 38, 60, 130, 188, 3, 107, 7, 62, 89, 167, 251, 0, 167, 168, 242, 127, 113, 56, 145, 49, 110, 155, 28, 60, 251, 233, 199, 59, 6, 33, 31, 190, 117, 208, 253, 0, 208, 140, 242, 127, 116, 56, 136, 48, 110, 155, 28, 60, 36, 49, 152, 59, 69, 28, 8, 190, 117, 208, 253, 0, 208, 140, 242, 127, 115, 56, 156, 48, 110, 155, 28, 60, 62, 112, 101, 188, 140, 164, 30, 62, 0, 249, 126, 0, 168, 90, 5, 129, 112, 56, 166, 49, 110, 155, 28, 60, 210, 147, 77, 188, 203, 159, 7, 62, 117, 208, 253, 0, 208, 140, 242, 127, 112, 56, 145, 49, 82, 131, 41, 60, 167, 179, 36, 60, 201, 226, 30, 190, 126, 0, 0, 0, 0, 126, 12, 129, 116, 56, 135, 48, 82, 131, 41, 60, 69, 216, 12, 60, 8, 222, 7, 190, 126, 0, 0, 0, 0, 126, 12, 129, 115, 56, 156, 48, 82, 131, 41, 60, 139, 176, 36, 188, 201, 226, 30, 62, 0, 249, 126, 0, 168, 90, 5, 129, 112, 56, 166, 49, 82, 131, 41, 60, 41, 213, 12, 188, 8, 222, 7, 62, 126, 0, 0, 0, 0, 126, 12, 129, 112, 56, 145, 49, 120, 156, 28, 60, 62, 112, 101, 60, 140, 164, 30, 190, 117, 48, 3, 0, 208, 116, 10, 129, 116, 56, 135, 48, 120, 156, 28, 60, 210, 147, 77, 60, 203, 159, 7, 190, 117, 48, 3, 0, 208, 116, 10, 129, 115, 56, 156, 48, 120, 156, 28, 60, 251, 233, 199, 187, 6, 33, 31, 62, 0, 249, 126, 0, 168, 90, 5, 129, 112, 56, 165, 49, 120, 156, 28, 60, 36, 49, 152, 187, 69, 28, 8, 62, 117, 48, 3, 0, 208, 116, 10, 129, 112, 56, 145, 49, 44, 186, 239, 59, 215, 41, 142, 60, 197, 111, 30, 190, 89, 89, 5, 0, 167, 89, 5, 129, 116, 56, 135, 48, 44, 186, 239, 59, 161, 59, 130, 60, 3, 107, 7, 190, 89, 89, 5, 0, 167, 89, 5, 129, 116, 56, 156, 48, 44, 186, 239, 59, 51, 70, 52, 187, 206, 85, 31, 62, 0, 249, 126, 0, 168, 90, 5, 129, 113, 56, 165, 49, 44, 186, 239, 59, 11, 169, 169, 186, 13, 81, 8, 62, 89, 89, 5, 0, 167, 89, 5, 129, 113, 56, 145, 49, 141, 187, 129, 59, 183, 128, 160, 60, 127, 76, 30, 190, 48, 117, 7, 0, 139, 48, 0, 129, 117, 56, 135, 48, 141, 187, 129, 59, 130, 146, 148, 60, 190, 71, 7, 190, 48, 117, 7, 0, 139, 48, 0, 129, 117, 56, 156, 48, 141, 187, 129, 59, 202, 60, 6, 186, 19, 121, 31, 62, 0, 249, 126, 0, 168, 90, 5, 129, 114, 56, 165, 49, 141, 187, 129, 59, 238, 137, 119, 58, 82, 116, 8, 62, 48, 117, 7, 0, 139, 48, 0, 129, 114, 56, 145, 49, 36, 191, 4, 179, 164, 240, 166, 60, 27, 64, 30, 190, 0, 126, 8, 0, 130, 0, 250, 129, 118, 56, 135, 48, 36, 191, 4, 179, 110, 2, 155, 60, 90, 59, 7, 190, 0, 126, 8, 0, 130, 0, 250, 129, 118, 56, 156, 48, 36, 191, 4, 179, 162, 129, 143, 57, 119, 133, 31, 62, 0, 249, 126, 0, 168, 90, 5, 129, 114, 56, 166, 49, 36, 191, 4, 179, 196, 195, 226, 58, 182, 128, 8, 62, 0, 126, 8, 0, 130, 0, 250, 129, 115, 56, 145, 49, 207, 187, 129, 187, 183, 128, 160, 60, 127, 76, 30, 190, 208, 117, 7, 0, 139, 209, 246, 129, 119, 56, 136, 48, 207, 187, 129, 187, 130, 146, 148, 60, 190, 71, 7, 190, 208, 117, 7, 0, 139, 209, 246, 129, 119, 56, 156, 48, 207, 187, 129, 187, 202, 60, 6, 186, 19, 121, 31, 62, 0, 249, 126, 0, 168, 90, 5, 129, 115, 56, 166, 49, 207, 187, 129, 187, 238, 137, 119, 58, 82, 116, 8, 62, 208, 117, 7, 0, 139, 209, 246, 129, 116, 56, 145, 49, 168, 185, 239, 187, 215, 41, 142, 60, 197, 111, 30, 190, 167, 89, 5, 0, 167, 168, 242, 129, 120, 56, 136, 48, 168, 185, 239, 187, 161, 59, 130, 60, 3, 107, 7, 190, 167, 89, 5, 0, 167, 168, 242, 129, 119, 56, 157, 48, 168, 185, 239, 187, 51, 70, 52, 187, 206, 85, 31, 62, 0, 249, 126, 0, 168, 90, 5, 129, 116, 56, 166, 49, 168, 185, 239, 187, 11, 169, 169, 186, 13, 81, 8, 62, 167, 89, 5, 0, 167, 168, 242, 129, 116, 56, 145, 49, 53, 156, 28, 188, 62, 112, 101, 60, 140, 164, 30, 190, 139, 48, 3, 0, 208, 140, 242, 129, 120, 56, 136, 48, 53, 156, 28, 188, 210, 147, 77, 60, 203, 159, 7, 190, 139, 48, 3, 0, 208, 140, 242, 129, 120, 56, 157, 48, 53, 156, 28, 188, 251, 233, 199, 187, 6, 33, 31, 62, 0, 249, 126, 0, 168, 90, 5, 129, 117, 56, 166, 49, 53, 156, 28, 188, 36, 49, 152, 187, 69, 28, 8, 62, 139, 48, 3, 0, 208, 140, 242, 129, 117, 56, 145, 49, 82, 131, 41, 188, 158, 178, 36, 60, 201, 226, 30, 190, 130, 0, 0, 0, 0, 126, 12, 127, 120, 56, 136, 48, 82, 131, 41, 188, 50, 214, 12, 60, 8, 222, 7, 190, 130, 0, 0, 0, 0, 126, 12, 127, 120, 56, 157, 48, 82, 131, 41, 188, 158, 178, 36, 188, 201, 226, 30, 62, 0, 249, 126, 0, 168, 90, 5, 129, 117, 56, 166, 49, 82, 131, 41, 188, 50, 214, 12, 188, 8, 222, 7, 62, 130, 0, 0, 0, 0, 126, 12, 127, 117, 56, 146, 49, 53, 156, 28, 188, 251, 233, 199, 59, 6, 33, 31, 190, 139, 208, 253, 0, 208, 116, 10, 127, 120, 56, 136, 48, 53, 156, 28, 188, 36, 49, 152, 59, 69, 28, 8, 190, 139, 208, 253, 0, 208, 116, 10, 127, 120, 56, 157, 48, 53, 156, 28, 188, 62, 112, 101, 188, 140, 164, 30, 62, 0, 249, 126, 0, 168, 90, 5, 129, 117, 56, 167, 49, 53, 156, 28, 188, 210, 147, 77, 188, 203, 159, 7, 62, 139, 208, 253, 0, 208, 116, 10, 127, 117, 56, 146, 49, 168, 185, 239, 187, 51, 70, 52, 59, 206, 85, 31, 190, 167, 167, 251, 0, 167, 89, 5, 127, 120, 56, 136, 48, 168, 185, 239, 187, 11, 169, 169, 58, 13, 81, 8, 190, 167, 167, 251, 0, 167, 89, 5, 127, 119, 56, 157, 48, 101, 185, 239, 187, 215, 41, 142, 188, 197, 111, 30, 62, 0, 249, 126, 0, 168, 90, 5, 129, 116, 56, 167, 49, 101, 185, 239, 187, 161, 59, 130, 188, 3, 107, 7, 62, 167, 167, 251, 0, 167, 89, 5, 127, 116, 56, 146, 49, 207, 187, 129, 187, 202, 60, 6, 58, 19, 121, 31, 190, 208, 139, 249, 0, 139, 48, 0, 127, 119, 56, 136, 48, 207, 187, 129, 187, 238, 137, 119, 186, 82, 116, 8, 190, 208, 139, 249, 0, 139, 48, 0, 127, 119, 56, 157, 48, 207, 187, 129, 187, 183, 128, 160, 188, 127, 76, 30, 62, 0, 249, 126, 0, 168, 90, 5, 129, 115, 56, 167, 49, 207, 187, 129, 187, 130, 146, 148, 188, 190, 71, 7, 62, 208, 139, 249, 0, 139, 48, 0, 127, 116, 56, 146, 49, 136, 185, 128, 62, 221, 103, 107, 188, 241, 236, 122, 62, 0, 253, 126, 0, 148, 66, 1, 129, 56, 56, 237, 49, 33, 252, 145, 62, 221, 103, 107, 188, 241, 236, 122, 62, 0, 253, 126, 0, 148, 66, 1, 129, 48, 56, 236, 49, 33, 252, 145, 62, 221, 103, 107, 188, 241, 236, 122, 62, 127, 0, 0, 0, 0, 130, 243, 127, 48, 56, 236, 49, 136, 185, 128, 62, 162, 243, 86, 59, 52, 114, 123, 62, 0, 253, 126, 0, 148, 66, 1, 129, 56, 56, 236, 49, 33, 252, 145, 62, 162, 243, 86, 59, 52, 114, 123, 62, 0, 253, 126, 0, 148, 66, 1, 129, 48, 56, 235, 49, 33, 252, 145, 62, 162, 243, 86, 59, 52, 114, 123, 62, 127, 0, 0, 0, 0, 130, 243, 127, 48, 56, 235, 49, 144, 28, 216, 60, 124, 239, 86, 59, 52, 114, 123, 62, 0, 253, 126, 0, 148, 66, 1, 129, 107, 56, 246, 49, 33, 252, 145, 62, 140, 3, 214, 60, 186, 103, 122, 190, 127, 0, 0, 0, 0, 130, 243, 127, 53, 56, 40, 48, 33, 252, 145, 62, 140, 3, 214, 60, 186, 103, 122, 190, 0, 126, 5, 0, 130, 0, 250, 129, 53, 56, 40, 48, 33, 252, 145, 62, 202, 101, 107, 60, 1, 237, 122, 190, 127, 0, 0, 0, 0, 130, 243, 127, 53, 56, 40, 48, 33, 252, 145, 62, 202, 101, 107, 60, 1, 237, 122, 190, 0, 130, 249, 0, 130, 0, 250, 127, 53, 56, 40, 48, 144, 28, 216, 60, 221, 103, 107, 188, 241, 236, 122, 62, 0, 253, 126, 0, 148, 66, 1, 129, 107, 56, 248, 49, 136, 185, 128, 62, 140, 3, 214, 60, 186, 103, 122, 190, 0, 5, 130, 0, 155, 76, 3, 127, 61, 56, 41, 48, 136, 185, 128, 62, 202, 101, 107, 60, 1, 237, 122, 190, 0, 5, 130, 0, 155, 76, 3, 127, 61, 56, 42, 48, 136, 185, 128, 62, 81, 241, 245, 187, 208, 18, 3, 62, 0, 130, 249, 0, 130, 0, 250, 127, 57, 56, 130, 49, 136, 185, 128, 62, 81, 241, 245, 187, 208, 18, 3, 62, 0, 231, 132, 0, 131, 19, 252, 127, 57, 56, 130, 49, 136, 185, 128, 62, 193, 44, 3, 187, 35, 207, 11, 61, 0, 130, 249, 0, 130, 0, 250, 127, 58, 56, 43, 49, 136, 185, 128, 62, 193, 44, 3, 187, 35, 207, 11, 61, 0, 218, 121, 0, 133, 228, 247, 127, 58, 56, 43, 49, 127, 28, 216, 60, 81, 241, 245, 187, 216, 18, 3, 62, 0, 130, 249, 0, 130, 0, 250, 127, 109, 56, 140, 49, 127, 28, 216, 60, 81, 241, 245, 187, 216, 18, 3, 62, 0, 231, 132, 0, 131, 19, 252, 127, 109, 56, 140, 49, 64, 121, 229, 60, 179, 6, 96, 187, 77, 51, 2, 62, 0, 130, 249, 0, 130, 0, 250, 127, 108, 56, 138, 49, 64, 121, 229, 60, 179, 6, 96, 187, 77, 51, 2, 62, 0, 231, 132, 0, 131, 19, 252, 127, 108, 56, 138, 49, 64, 121, 229, 60, 47, 175, 8, 59, 161, 31, 17, 61, 0, 130, 249, 0, 130, 0, 250, 127, 109, 56, 54, 49, 64, 121, 229, 60, 47, 175, 8, 59, 161, 31, 17, 61, 0, 218, 121, 0, 133, 228, 247, 127, 109, 56, 54, 49, 117, 199, 127, 62, 179, 6, 96, 187, 69, 51, 2, 62, 0, 231, 132, 0, 131, 19, 252, 127, 57, 56, 128, 49, 117, 199, 127, 62, 179, 6, 96, 187, 69, 51, 2, 62, 0, 130, 249, 0, 130, 0, 250, 127, 57, 56, 128, 49, 64, 121, 229, 60, 50, 128, 199, 59, 112, 77, 15, 189, 117, 210, 254, 0, 210, 139, 242, 127, 110, 56, 245, 48, 64, 121, 229, 60, 50, 128, 199, 59, 112, 77, 15, 189, 0, 130, 249, 0, 130, 0, 250, 127, 110, 56, 245, 48, 64, 121, 229, 60, 146, 237, 61, 60, 193, 190, 1, 190, 117, 210, 254, 0, 210, 139, 242, 127, 111, 56, 160, 48, 64, 121, 229, 60, 146, 237, 61, 60, 193, 190, 1, 190, 0, 130, 249, 0, 130, 0, 250, 127, 111, 56, 160, 48, 117, 199, 127, 62, 50, 128, 199, 59, 144, 77, 15, 189, 0, 130, 249, 0, 130, 0, 250, 127, 59, 56, 235, 48, 117, 199, 127, 62, 50, 128, 199, 59, 144, 77, 15, 189, 0, 231, 132, 0, 131, 19, 252, 127, 59, 56, 235, 48, 117, 199, 127, 62, 47, 175, 8, 59, 130, 31, 17, 61, 0, 130, 249, 0, 130, 0, 250, 127, 58, 56, 44, 49, 117, 199, 127, 62, 47, 175, 8, 59, 130, 31, 17, 61, 0, 218, 121, 0, 133, 228, 247, 127, 58, 56, 44, 49, 117, 199, 127, 62, 146, 237, 61, 60, 201, 190, 1, 190, 0, 130, 249, 0, 130, 0, 250, 127, 60, 56, 151, 48, 117, 199, 127, 62, 146, 237, 61, 60, 201, 190, 1, 190, 139, 210, 254, 0, 210, 117, 10, 127, 60, 56, 151, 48, 136, 185, 128, 62, 43, 237, 245, 59, 224, 18, 3, 190, 0, 130, 249, 0, 130, 0, 250, 127, 60, 56, 150, 48, 136, 185, 128, 62, 43, 237, 245, 59, 224, 18, 3, 190, 139, 210, 254, 0, 210, 117, 10, 127, 60, 56, 150, 48, 136, 185, 128, 62, 117, 36, 3, 59, 99, 207, 11, 189, 0, 130, 249, 0, 130, 0, 250, 127, 59, 56, 236, 48, 136, 185, 128, 62, 117, 36, 3, 59, 99, 207, 11, 189, 0, 231, 132, 0, 131, 19, 252, 127, 59, 56, 236, 48, 127, 28, 216, 60, 117, 36, 3, 59, 67, 207, 11, 189, 0, 130, 249, 0, 130, 0, 250, 127, 111, 56, 246, 48, 127, 28, 216, 60, 117, 36, 3, 59, 67, 207, 11, 189, 117, 210, 254, 0, 210, 139, 242, 127, 111, 56, 246, 48, 127, 28, 216, 60, 43, 237, 245, 59, 216, 18, 3, 190, 0, 130, 249, 0, 130, 0, 250, 127, 112, 56, 160, 48, 127, 28, 216, 60, 43, 237, 245, 59, 216, 18, 3, 190, 117, 210, 254, 0, 210, 139, 242, 127, 112, 56, 160, 48, 36, 191, 4, 51, 43, 237, 245, 59, 216, 18, 3, 190, 0, 130, 249, 0, 130, 0, 250, 127, 118, 56, 161, 48, 36, 191, 4, 51, 117, 36, 3, 59, 67, 207, 11, 189, 0, 130, 249, 0, 130, 0, 250, 127, 117, 56, 247, 48, 36, 191, 4, 51, 193, 44, 3, 187, 67, 207, 11, 61, 0, 130, 249, 0, 130, 0, 250, 127, 116, 56, 54, 49, 36, 191, 4, 51, 81, 241, 245, 187, 216, 18, 3, 62, 0, 130, 249, 0, 130, 0, 250, 127, 115, 56, 141, 49, 127, 28, 216, 60, 193, 44, 3, 187, 67, 207, 11, 61, 0, 130, 249, 0, 130, 0, 250, 127, 110, 56, 53, 49, 127, 28, 216, 60, 193, 44, 3, 187, 67, 207, 11, 61, 0, 218, 121, 0, 133, 228, 247, 127, 110, 56, 53, 49, 36, 191, 4, 51, 218, 122, 133, 60, 1, 201, 9, 189, 0, 126, 5, 0, 130, 0, 250, 129, 117, 56, 246, 48, 36, 191, 4, 51, 29, 87, 169, 60, 133, 155, 2, 190, 0, 126, 5, 0, 130, 0, 250, 129, 118, 56, 160, 48, 36, 191, 4, 51, 189, 20, 15, 60, 3, 166, 3, 62, 0, 126, 5, 0, 130, 0, 250, 129, 115, 56, 140, 49, 36, 191, 4, 51, 67, 205, 86, 60, 251, 242, 13, 61, 0, 126, 5, 0, 130, 0, 250, 129, 116, 56, 53, 49, 33, 252, 145, 62, 117, 36, 3, 59, 99, 207, 11, 189, 127, 0, 0, 0, 0, 130, 243, 127, 51, 56, 235, 48, 33, 252, 145, 62, 43, 237, 245, 59, 224, 18, 3, 190, 0, 130, 249, 0, 130, 0, 250, 127, 52, 56, 148, 48, 33, 252, 145, 62, 81, 241, 245, 187, 208, 18, 3, 62, 0, 130, 249, 0, 130, 0, 250, 127, 49, 56, 128, 49, 33, 252, 145, 62, 193, 44, 3, 187, 35, 207, 11, 61, 0, 130, 249, 0, 130, 0, 250, 127, 50, 56, 42, 49, 33, 252, 145, 62, 29, 87, 169, 60, 133, 155, 2, 190, 0, 126, 5, 0, 130, 0, 250, 129, 52, 56, 147, 48, 33, 252, 145, 62, 218, 122, 133, 60, 1, 201, 9, 189, 0, 126, 5, 0, 130, 0, 250, 129, 51, 56, 234, 48, 33, 252, 145, 62, 76, 206, 86, 60, 251, 242, 13, 61, 0, 126, 5, 0, 130, 0, 250, 129, 50, 56, 41, 49, 33, 252, 145, 62, 199, 21, 15, 60, 3, 166, 3, 62, 0, 126, 5, 0, 130, 0, 250, 129, 49, 56, 127, 49 ),
"array_index_data": PoolByteArray( 63, 1, 108, 0, 62, 1, 63, 1, 109, 0, 108, 0, 44, 1, 153, 0, 46, 1, 44, 1, 152, 0, 153, 0, 103, 0, 156, 0, 154, 0, 103, 0, 155, 0, 156, 0, 93, 0, 38, 0, 97, 0, 38, 0, 45, 0, 41, 0, 45, 0, 53, 0, 49, 0, 53, 0, 61, 0, 57, 0, 61, 0, 69, 0, 65, 0, 69, 0, 77, 0, 73, 0, 77, 0, 85, 0, 81, 0, 85, 0, 93, 0, 89, 0, 93, 0, 45, 0, 38, 0, 45, 0, 61, 0, 53, 0, 61, 0, 77, 0, 69, 0, 77, 0, 93, 0, 85, 0, 93, 0, 61, 0, 45, 0, 61, 0, 93, 0, 77, 0, 0, 1, 199, 0, 39, 0, 199, 0, 208, 0, 204, 0, 208, 0, 216, 0, 212, 0, 216, 0, 224, 0, 220, 0, 224, 0, 232, 0, 228, 0, 232, 0, 240, 0, 236, 0, 240, 0, 248, 0, 244, 0, 248, 0, 0, 1, 252, 0, 0, 1, 208, 0, 199, 0, 208, 0, 224, 0, 216, 0, 224, 0, 240, 0, 232, 0, 240, 0, 0, 1, 248, 0, 0, 1, 224, 0, 208, 0, 224, 0, 0, 1, 240, 0, 5, 0, 163, 0, 33, 0, 163, 0, 29, 0, 184, 0, 29, 0, 186, 0, 167, 0, 186, 0, 171, 0, 23, 0, 171, 0, 17, 0, 188, 0, 17, 0, 190, 0, 175, 0, 190, 0, 179, 0, 11, 0, 179, 0, 5, 0, 192, 0, 5, 0, 29, 0, 163, 0, 29, 0, 171, 0, 186, 0, 171, 0, 190, 0, 17, 0, 190, 0, 5, 0, 179, 0, 5, 0, 171, 0, 29, 0, 171, 0, 5, 0, 190, 0, 31, 0, 32, 0, 35, 0, 32, 0, 7, 0, 4, 0, 7, 0, 10, 0, 9, 0, 10, 0, 15, 0, 13, 0, 15, 0, 19, 0, 16, 0, 19, 0, 22, 0, 21, 0, 22, 0, 27, 0, 25, 0, 27, 0, 31, 0, 28, 0, 31, 0, 7, 0, 32, 0, 7, 0, 15, 0, 10, 0, 15, 0, 22, 0, 19, 0, 22, 0, 31, 0, 27, 0, 31, 0, 15, 0, 7, 0, 15, 0, 31, 0, 22, 0, 95, 0, 195, 0, 99, 0, 195, 0, 47, 0, 43, 0, 47, 0, 55, 0, 51, 0, 55, 0, 63, 0, 59, 0, 63, 0, 71, 0, 67, 0, 71, 0, 79, 0, 75, 0, 79, 0, 87, 0, 83, 0, 87, 0, 95, 0, 91, 0, 95, 0, 47, 0, 195, 0, 47, 0, 63, 0, 55, 0, 63, 0, 79, 0, 71, 0, 79, 0, 95, 0, 87, 0, 95, 0, 63, 0, 47, 0, 63, 0, 95, 0, 79, 0, 162, 0, 164, 0, 165, 0, 162, 0, 34, 0, 164, 0, 166, 0, 168, 0, 169, 0, 166, 0, 26, 0, 168, 0, 170, 0, 172, 0, 173, 0, 170, 0, 20, 0, 172, 0, 174, 0, 176, 0, 177, 0, 174, 0, 14, 0, 176, 0, 178, 0, 180, 0, 181, 0, 178, 0, 8, 0, 180, 0, 182, 0, 165, 0, 183, 0, 182, 0, 162, 0, 165, 0, 34, 0, 185, 0, 164, 0, 34, 0, 30, 0, 185, 0, 26, 0, 187, 0, 168, 0, 26, 0, 24, 0, 187, 0, 20, 0, 189, 0, 172, 0, 20, 0, 18, 0, 189, 0, 14, 0, 191, 0, 176, 0, 14, 0, 12, 0, 191, 0, 8, 0, 193, 0, 180, 0, 8, 0, 6, 0, 193, 0, 6, 0, 183, 0, 193, 0, 6, 0, 182, 0, 183, 0, 12, 0, 181, 0, 191, 0, 12, 0, 178, 0, 181, 0, 18, 0, 177, 0, 189, 0, 18, 0, 174, 0, 177, 0, 24, 0, 173, 0, 187, 0, 24, 0, 170, 0, 173, 0, 30, 0, 169, 0, 185, 0, 30, 0, 166, 0, 169, 0, 194, 0, 196, 0, 197, 0, 194, 0, 36, 0, 196, 0, 198, 0, 200, 0, 201, 0, 198, 0, 96, 0, 200, 0, 202, 0, 197, 0, 203, 0, 202, 0, 194, 0, 197, 0, 96, 0, 205, 0, 200, 0, 96, 0, 92, 0, 205, 0, 206, 0, 203, 0, 207, 0, 206, 0, 202, 0, 203, 0, 92, 0, 209, 0, 205, 0, 92, 0, 88, 0, 209, 0, 210, 0, 207, 0, 211, 0, 210, 0, 206, 0, 207, 0, 88, 0, 213, 0, 209, 0, 88, 0, 84, 0, 213, 0, 214, 0, 211, 0, 215, 0, 214, 0, 210, 0, 211, 0, 84, 0, 217, 0, 213, 0, 84, 0, 80, 0, 217, 0, 218, 0, 215, 0, 219, 0, 218, 0, 214, 0, 215, 0, 80, 0, 221, 0, 217, 0, 80, 0, 76, 0, 221, 0, 222, 0, 219, 0, 223, 0, 222, 0, 218, 0, 219, 0, 76, 0, 225, 0, 221, 0, 76, 0, 72, 0, 225, 0, 226, 0, 223, 0, 227, 0, 226, 0, 222, 0, 223, 0, 72, 0, 229, 0, 225, 0, 72, 0, 68, 0, 229, 0, 230, 0, 227, 0, 231, 0, 230, 0, 226, 0, 227, 0, 68, 0, 233, 0, 229, 0, 68, 0, 64, 0, 233, 0, 234, 0, 231, 0, 235, 0, 234, 0, 230, 0, 231, 0, 64, 0, 237, 0, 233, 0, 64, 0, 60, 0, 237, 0, 238, 0, 235, 0, 239, 0, 238, 0, 234, 0, 235, 0, 60, 0, 241, 0, 237, 0, 60, 0, 56, 0, 241, 0, 242, 0, 239, 0, 243, 0, 242, 0, 238, 0, 239, 0, 56, 0, 245, 0, 241, 0, 56, 0, 52, 0, 245, 0, 246, 0, 243, 0, 247, 0, 246, 0, 242, 0, 243, 0, 52, 0, 249, 0, 245, 0, 52, 0, 48, 0, 249, 0, 250, 0, 247, 0, 251, 0, 250, 0, 246, 0, 247, 0, 48, 0, 253, 0, 249, 0, 48, 0, 44, 0, 253, 0, 254, 0, 251, 0, 255, 0, 254, 0, 250, 0, 251, 0, 44, 0, 1, 1, 253, 0, 44, 0, 40, 0, 1, 1, 36, 0, 255, 0, 196, 0, 36, 0, 254, 0, 255, 0, 40, 0, 201, 0, 1, 1, 40, 0, 198, 0, 201, 0, 42, 0, 98, 0, 37, 0, 98, 0, 90, 0, 94, 0, 90, 0, 82, 0, 86, 0, 82, 0, 74, 0, 78, 0, 74, 0, 66, 0, 70, 0, 66, 0, 58, 0, 62, 0, 58, 0, 50, 0, 54, 0, 50, 0, 42, 0, 46, 0, 42, 0, 90, 0, 98, 0, 90, 0, 74, 0, 82, 0, 74, 0, 58, 0, 66, 0, 58, 0, 42, 0, 50, 0, 42, 0, 74, 0, 90, 0, 74, 0, 42, 0, 58, 0, 137, 0, 141, 0, 138, 0, 137, 0, 142, 0, 141, 0, 100, 0, 54, 1, 131, 0, 100, 0, 161, 0, 54, 1, 0, 0, 139, 0, 140, 0, 0, 0, 157, 0, 139, 0, 110, 0, 62, 1, 108, 0, 110, 0, 61, 1, 62, 1, 42, 1, 48, 1, 50, 1, 42, 1, 47, 1, 48, 1, 118, 0, 131, 0, 109, 0, 118, 0, 100, 0, 131, 0, 40, 1, 50, 1, 18, 1, 40, 1, 42, 1, 50, 1, 52, 1, 130, 0, 55, 1, 52, 1, 129, 0, 130, 0, 2, 1, 6, 1, 3, 1, 2, 1, 5, 1, 6, 1, 15, 1, 155, 0, 103, 0, 15, 1, 14, 1, 155, 0, 158, 0, 8, 1, 13, 1, 158, 0, 160, 0, 8, 1, 38, 1, 152, 0, 44, 1, 38, 1, 116, 0, 152, 0, 101, 0, 49, 1, 159, 0, 101, 0, 20, 1, 49, 1, 128, 0, 3, 0, 102, 0, 128, 0, 53, 1, 3, 0, 143, 0, 2, 0, 1, 0, 143, 0, 136, 0, 2, 0, 119, 0, 20, 1, 101, 0, 119, 0, 16, 1, 20, 1, 111, 0, 102, 0, 117, 0, 111, 0, 128, 0, 102, 0, 120, 0, 7, 1, 127, 0, 120, 0, 4, 1, 7, 1, 11, 1, 124, 0, 9, 1, 11, 1, 123, 0, 124, 0, 44, 1, 47, 1, 42, 1, 44, 1, 46, 1, 47, 1, 49, 1, 50, 1, 48, 1, 49, 1, 20, 1, 50, 1, 53, 1, 129, 0, 52, 1, 53, 1, 128, 0, 129, 0, 131, 0, 55, 1, 130, 0, 131, 0, 54, 1, 55, 1, 136, 0, 142, 0, 137, 0, 136, 0, 143, 0, 142, 0, 140, 0, 138, 0, 141, 0, 140, 0, 139, 0, 138, 0, 21, 1, 26, 1, 23, 1, 21, 1, 17, 1, 26, 1, 16, 1, 59, 1, 18, 1, 16, 1, 58, 1, 59, 1, 111, 0, 61, 1, 110, 0, 111, 0, 60, 1, 61, 1, 109, 0, 130, 0, 108, 0, 109, 0, 131, 0, 130, 0, 120, 0, 126, 0, 121, 0, 120, 0, 127, 0, 126, 0, 124, 0, 56, 1, 125, 0, 124, 0, 123, 0, 56, 1, 121, 0, 125, 0, 56, 1, 121, 0, 126, 0, 125, 0, 128, 0, 110, 0, 129, 0, 128, 0, 111, 0, 110, 0, 45, 1, 28, 1, 30, 1, 45, 1, 43, 1, 28, 1, 57, 1, 40, 1, 122, 0, 57, 1, 38, 1, 40, 1, 60, 1, 117, 0, 10, 1, 60, 1, 111, 0, 117, 0, 105, 0, 16, 1, 119, 0, 105, 0, 58, 1, 16, 1, 57, 1, 116, 0, 38, 1, 57, 1, 12, 1, 116, 0, 107, 0, 14, 1, 15, 1, 107, 0, 106, 0, 14, 1, 13, 1, 5, 1, 2, 1, 13, 1, 8, 1, 5, 1, 122, 0, 18, 1, 59, 1, 122, 0, 40, 1, 18, 1, 104, 0, 109, 0, 63, 1, 104, 0, 118, 0, 109, 0, 129, 0, 108, 0, 130, 0, 129, 0, 110, 0, 108, 0, 36, 1, 29, 1, 32, 1, 36, 1, 31, 1, 29, 1, 22, 1, 34, 1, 24, 1, 22, 1, 27, 1, 34, 1, 134, 0, 33, 1, 149, 0, 134, 0, 41, 1, 33, 1, 114, 0, 37, 1, 148, 0, 114, 0, 39, 1, 37, 1, 19, 1, 25, 1, 35, 1, 19, 1, 51, 1, 25, 1, 115, 0, 150, 0, 147, 0, 115, 0, 135, 0, 150, 0, 113, 0, 145, 0, 144, 0, 113, 0, 112, 0, 145, 0, 133, 0, 146, 0, 151, 0, 133, 0, 132, 0, 146, 0 ),
"blend_shape_data": [  ],
"format": 97559,
"index_count": 864,
"material": ExtResource( 1 ),
"primitive": 4,
"skeleton_aabb": [  ],
"vertex_count": 320
}
